{
  "routes": [
    {
      "method": "GET",
      "path": "/information-page",
      "handler": "information-page.find",
      "config": {
        "policies": []
      }
    },
    {
      "method": "PUT",
      "path": "/information-page",
      "handler": "information-page.update",
      "config": {
        "policies": []
      }
    },
    {
      "method": "DELETE",
      "path": "/information-page",
      "handler": "information-page.delete",
      "config": {
        "policies": []
      }
    }
  ]
}
