{
  "kind": "collectionType",
  "collectionName": "bonus_question_winner_answers",
  "info": {
    "name": "BonusQuestionWinnerAnswer",
    "description": ""
  },
  "options": {
    "increments": true,
    "timestamps": true,
    "draftAndPublish": false
  },
  "pluginOptions": {},
  "attributes": {
    "team": {
      "model": "team"
    },
    "author": {
      "plugin": "users-permissions",
      "model": "user"
    },
    "competition": {
      "model": "competition"
    },
    "bonus_question_winner": {
      "model": "bonus-question-winner"
    }
  }
}
