{
  "kind": "collectionType",
  "collectionName": "competition_users",
  "info": {
    "name": "CompetitionUsers",
    "description": ""
  },
  "options": {
    "increments": true,
    "timestamps": true,
    "draftAndPublish": false
  },
  "pluginOptions": {},
  "attributes": {
    "user": {
      "plugin": "users-permissions",
      "model": "user"
    },
    "Accepted": {
      "type": "boolean"
    },
    "Admin": {
      "type": "boolean"
    },
    "competition": {
      "via": "competition_users",
      "model": "competition"
    }
  }
}
