{
  "kind": "collectionType",
  "collectionName": "phases",
  "info": {
    "name": "Phase",
    "description": ""
  },
  "options": {
    "increments": true,
    "timestamps": true,
    "draftAndPublish": false
  },
  "pluginOptions": {},
  "attributes": {
    "games": {
      "collection": "game",
      "via": "phase"
    },
    "Title": {
      "type": "string"
    },
    "Slug": {
      "type": "string",
      "unique": false
    },
    "Active": {
      "type": "boolean",
      "default": false
    }
  }
}
